Telecom_churn
…
##   churn    n
## 1 False 2850
## 2  True  483

df %>% 
  group_by(state, churn) %>% 
  summarise(
    mean_calls_day = mean(total_day_calls),
    mean_charge_day = mean(total_day_charge)
  )

## `summarise()` has grouped output by 'state'. You can override using the
## `.groups` argument.

## # A tibble: 102 x 4
## # Groups:   state [51]
##    state churn mean_calls_day mean_charge_day
##    <chr> <chr>          <dbl>           <dbl>
##  1 AK    False           95.6            30.5
##  2 AK    True            90              27.2
##  3 AL    False           99.4            31.3
##  4 AL    True            96.5            35.0
##  5 AR    False          102.             29.8
##  6 AR    True           103.             30.4
##  7 AZ    False           99.5            28.8
##  8 AZ    True           109              34.0
##  9 CA    False          106.             30.8
## 10 CA    True            99.7            32.4
## # ... with 92 more rows
…
